…
```r
## Calculate total number of steps taken per day
total_steps <- tracking_df%>%
          group_by(date)%>%
          summarise(sum_steps=sum(steps, na.rm=TRUE))%>%
          print()
```

```
## # A tibble: 53 × 2
##    date       sum_steps
##    <date>         <dbl>
##  1 2012-10-02       126
##  2 2012-10-03     11352
##  3 2012-10-04     12116
##  4 2012-10-05     13294
##  5 2012-10-06     15420
##  6 2012-10-07     11015
##  7 2012-10-09     12811
##  8 2012-10-10      9900
##  9 2012-10-11     10304
## 10 2012-10-12     17382
## # ℹ 43 more rows
```
…
### Question 2
What is the average daily activity pattern?


```r
# Make a time series plot (i.e. type = "l") of the 5-minute interval (x-axis) and the average number of steps taken, averaged across all days (y-axis)
mean_interval <- tracking_df%>%
          group_by(interval)%>%
          summarise(mean_steps=mean(steps))%>%
          print()
```

```
## # A tibble: 288 × 2
##    interval mean_steps
##       <dbl>      <dbl>
##  1        0     1.72  
##  2        5     0.340 
##  3       10     0.132 
##  4       15     0.151 
##  5       20     0.0755
##  6       25     2.09  
##  7       30     0.528 
##  8       35     0.868 
##  9       40     0     
## 10       45     1.47  
## # ℹ 278 more rows
```
…
```
## # A tibble: 17,568 × 3
##    steps date       interval
##    <dbl> <date>        <dbl>
##  1  37.4 2012-10-01        0
##  2  37.4 2012-10-01        5
##  3  37.4 2012-10-01       10
##  4  37.4 2012-10-01       15
##  5  37.4 2012-10-01       20
##  6  37.4 2012-10-01       25
##  7  37.4 2012-10-01       30
##  8  37.4 2012-10-01       35
##  9  37.4 2012-10-01       40
## 10  37.4 2012-10-01       45
## # ℹ 17,558 more rows
```

```r
## Calculate total number of steps taken per day
fill_total_steps <- fill_tracking%>%
          group_by(date)%>%
          summarise(sum_steps=sum(steps, na.rm=TRUE))%>%
          print()
```

```
## # A tibble: 61 × 2
##    date       sum_steps
##    <date>         <dbl>
##  1 2012-10-01    10766.
##  2 2012-10-02      126 
##  3 2012-10-03    11352 
##  4 2012-10-04    12116 
##  5 2012-10-05    13294 
##  6 2012-10-06    15420 
##  7 2012-10-07    11015 
##  8 2012-10-08    10766.
##  9 2012-10-09    12811 
## 10 2012-10-10     9900 
## # ℹ 51 more rows
```
…
## Calculate the mean steps interval by day type
fill_mean_interval <- fill_tracking_daytype%>%
          group_by(interval, day_type)%>%
          summarise(mean_steps=mean(steps))%>%
          print()
```

```
## `summarise()` has grouped output by 'interval'. You can override using the
## `.groups` argument.
```

```
## # A tibble: 576 × 3
## # Groups:   interval [288]
##    interval day_type mean_steps
##       <dbl> <chr>         <dbl>
##  1        0 weekday        7.01
##  2        0 weekend        4.67
##  3        5 weekday        5.38
##  4        5 weekend        4.67
##  5       10 weekday        5.14
##  6       10 weekend        4.67
##  7       15 weekday        5.16
##  8       15 weekend        4.67
##  9       20 weekday        5.07
## 10       20 weekend        4.67
## # ℹ 566 more rows
```
…
