…
```
## # A tibble: 277,144 × 7
##    ev_duration state evtype                  fatalities injuries propdmg cropdmg
##          <dbl> <fct> <fct>                        <dbl>    <dbl>   <dbl>   <dbl>
##  1           1 AL    HURRICANE OPAL/HIGH WI…          2        0  1   e8     1e7
##  2           0 AL    THUNDERSTORM WINDS               0        0  5   e6     5e5
##  3           1 AL    HURRICANE OPAL                   0        0  4.80e7     4e6
##  4           1 AL    HURRICANE OPAL                   0        0  2   e7     1e7
##  5           0 AL    THUNDERSTORM WINDS HAIL          0        0  2.5 e4     1e4
##  6           0 AL    THUNDERSTORM WINDS               0        0  5   e5     5e5
##  7           5 AL    FLOODING                         2        0  5   e7     5e6
##  8           5 AL    HEAVY RAIN                       2        0  5   e7     5e6
##  9           7 AK    HIGH WINDS HEAVY RAINS           0        0  7.5 e6     1e4
## 10           3 CA    WINTER STORM                     3        5  5   e6     5e6
## # ℹ 277,134 more rows
```
…
